{
    "name": "download-bids",
    "description": "download-bids setup command. Securely downloads XNAT session(s) with BIDS and NIFTI resources into a user specified local directory in BIDS format.",
    "version": "1.1",
    "type": "docker-setup",
    "image": "radiologicsit/download-bids-setup:1.1",
    "command-line": "download-bids.sh -o host -i projectid -c /input -b /output"
}
